{
  "LazyVim": { "branch": "main", "commit": "d0c366e4d861b848bdc710696d5311dca2c6d540" },
  "SchemaStore.nvim": { "branch": "main", "commit": "fa47222e29d6f6e80eddcdd0f125c27edf274ad5" },
  "blink.cmp": { "branch": "main", "commit": "5f442681df24fe705d1ee7ce5b4d435aa4b4dee4" },
  "bufferline.nvim": { "branch": "main", "commit": "9f0826ae6adfd836a23bf8a4910e3c07450211f4" },
  "catppuccin": { "branch": "main", "commit": "f67b886d65a029f12ffa298701fb8f1efd89295d" },
  "conform.nvim": { "branch": "master", "commit": "9180320205d250429f0f80e073326c674e2a7149" },
  "crates.nvim": { "branch": "main", "commit": "8bf8358ee326d5d8c11dcd7ac0bcc9ff97dbc785" },
  "dial.nvim": { "branch": "master", "commit": "46b4375e84e8eb771129bff6b2b1e47746601ef9" },
  "file-line": { "branch": "master", "commit": "a9c0f4054e295ac08029e65d34a4ed539bc9b4c5" },
  "flash.nvim": { "branch": "main", "commit": "34c7be146a91fec3555c33fe89c7d643f6ef5cf1" },
  "friendly-snippets": { "branch": "main", "commit": "efff286dd74c22f731cdec26a70b46e5b203c619" },
  "fzf-lua": { "branch": "main", "commit": "c054a21cd22cef41c62ce96247040abccaab8dbc" },
  "gitsigns.nvim": { "branch": "main", "commit": "5f808b5e4fef30bd8aca1b803b4e555da07fc412" },
  "grug-far.nvim": { "branch": "main", "commit": "c88435b825a35bfa468b47159709b3221976ecd1" },
  "inc-rename.nvim": { "branch": "main", "commit": "f4e13df6e2d0b3177a7305dbc1cc7f7ea44b94f1" },
  "lazy.nvim": { "branch": "main", "commit": "7e6c863bc7563efbdd757a310d17ebc95166cef3" },
  "lazydev.nvim": { "branch": "main", "commit": "8620f82ee3f59ff2187647167b6b47387a13a018" },
  "lualine.nvim": { "branch": "master", "commit": "2a5bae925481f999263d6f5ed8361baef8df4f83" },
  "mason-lspconfig.nvim": { "branch": "main", "commit": "c6c686781f9841d855bf1b926e10aa5e19430a38" },
  "mason.nvim": { "branch": "main", "commit": "e2f7f9044ec30067bc11800a9e266664b88cda22" },
  "material.nvim": { "branch": "main", "commit": "c8ff153d2c2b22f8b2c9bcce0d741ab55c00cfed" },
  "mini.ai": { "branch": "main", "commit": "ebb04799794a7f94628153991e6334c3304961b8" },
  "mini.hipatterns": { "branch": "main", "commit": "f34975103a38b3f608219a1324cdfc58ea660b8b" },
  "mini.icons": { "branch": "main", "commit": "6787321f70d674a481776b7cc2c781fb7002c644" },
  "mini.pairs": { "branch": "main", "commit": "7e834c5937d95364cc1740e20d673afe2d034cdb" },
  "mini.surround": { "branch": "main", "commit": "aa5e245829dd12d8ff0c96ef11da28681d6049aa" },
  "neo-tree.nvim": { "branch": "main", "commit": "2a0b2c5d394a280cee9444c9894582ac53098604" },
  "neotest": { "branch": "master", "commit": "0dccb5ebcf00de245e2060fa17822a9464f5c41a" },
  "neotest-python": { "branch": "master", "commit": "a2861ab3c9a0bf75a56b11835c2bfc8270f5be7e" },
  "noice.nvim": { "branch": "main", "commit": "eaed6cc9c06aa2013b5255349e4f26a6b17ab70f" },
  "nui.nvim": { "branch": "main", "commit": "53e907ffe5eedebdca1cd503b00aa8692068ca46" },
  "nvim-lint": { "branch": "master", "commit": "1fea92f1d9908eaa5eb8bafe08b4293d7aadaa55" },
  "nvim-lspconfig": { "branch": "master", "commit": "8b15a1a597a59f4f5306fad9adfe99454feab743" },
  "nvim-nio": { "branch": "master", "commit": "a428f309119086dc78dd4b19306d2d67be884eee" },
  "nvim-treesitter": { "branch": "master", "commit": "e947d35bbf919ea88a24c21cb8afa4621e3cf547" },
  "nvim-treesitter-textobjects": { "branch": "master", "commit": "ad8f0a472148c3e0ae9851e26a722ee4e29b1595" },
  "nvim-ts-autotag": { "branch": "main", "commit": "1cca23c9da708047922d3895a71032bc0449c52d" },
  "persistence.nvim": { "branch": "main", "commit": "f6aad7dde7fcf54148ccfc5f622c6d5badd0cc3d" },
  "plenary.nvim": { "branch": "master", "commit": "2d9b06177a975543726ce5c73fca176cedbffe9d" },
  "rustaceanvim": { "branch": "master", "commit": "d6183fda8341157d763e487b0ef59a83e55f535b" },
  "snacks.nvim": { "branch": "main", "commit": "d312053f78b4fb55523def179ac502438dd93193" },
  "telescope-terraform-doc.nvim": { "branch": "main", "commit": "28efe1f3cb2ed4c83fa69000ae8afd2f85d62826" },
  "telescope-terraform.nvim": { "branch": "main", "commit": "072c97023797ca1a874668aaa6ae0b74425335df" },
  "telescope.nvim": { "branch": "master", "commit": "415af52339215926d705cccc08145f3782c4d132" },
  "todo-comments.nvim": { "branch": "main", "commit": "ae0a2afb47cf7395dc400e5dc4e05274bf4fb9e0" },
  "tokyonight.nvim": { "branch": "main", "commit": "45d22cf0e1b93476d3b6d362d720412b3d34465c" },
  "trouble.nvim": { "branch": "main", "commit": "46cf952fc115f4c2b98d4e208ed1e2dce08c9bf6" },
  "ts-comments.nvim": { "branch": "main", "commit": "872dcfa0418f4a33b7437fb4d9f4e89f2f000d74" },
  "venv-selector.nvim": { "branch": "regexp", "commit": "e82594274bf7b54387f9a2abe65f74909ac66e97" },
  "vim-SyntaxRange": { "branch": "master", "commit": "78004d2ec1d68f9d1d8b54c1803a52feb2f938f3" },
  "vim-caser": { "branch": "master", "commit": "6bc9f41d170711c58e0157d882a5fe8c30f34bf6" },
  "vim-dadbod": { "branch": "master", "commit": "f740950d0703099e0f172016f10e0e39f50fd0ba" },
  "vim-dadbod-completion": { "branch": "master", "commit": "71eb73d1f7399be6a56cc43b928276cd5ca27ffd" },
  "vim-dadbod-ui": { "branch": "master", "commit": "0fec59e3e1e619e302198cd491b7d27f8d398b7c" },
  "vim-matchquote": { "branch": "master", "commit": "c4c70010ddb62607e03f84b68262ce9d0c2c82fe" },
  "vim-matchup": { "branch": "master", "commit": "aca23ce53ebfe34e02c4fe07e29e9133a2026481" },
  "vim-repeat": { "branch": "master", "commit": "65846025c15494983dafe5e3b46c8f88ab2e9635" },
  "vim-sanegx": { "branch": "master", "commit": "e97c10401d781199ba1aecd07790d0771314f3f5" },
  "vim-surround": { "branch": "master", "commit": "3d188ed2113431cf8dac77be61b842acb64433d9" },
  "vim-unimpaired": { "branch": "master", "commit": "6d44a6dc2ec34607c41ec78acf81657248580bf1" },
  "which-key.nvim": { "branch": "main", "commit": "8ab96b38a2530eacba5be717f52e04601eb59326" },
  "yanky.nvim": { "branch": "main", "commit": "f9b905994cccf3c55f41af3a0a1f4c76c844e411" }
}
